{
    "data": {
        "curPage": 1,
        "datas": [
            {
                "adminAdd": false,
                "apkLink": "",
                "audit": 1,
                "author": "",
                "canEdit": false,
                "chapterId": 494,
                "chapterName": "广场",
                "collect": false,
                "courseId": 13,
                "desc": "",
                "descMd": "",
                "envelopePic": "",
                "fresh": true,
                "host": "",
                "id": 24854,
                "isAdminAdd": false,
                "link": "https://blog.csdn.net/petterp/article/details/124310591",
                "niceDate": "9小时前",
                "niceShareDate": "9小时前",
                "origin": "",
                "prefix": "",
                "projectLink": "",
                "publishTime": 1667444495000,
                "realSuperChapterId": 493,
                "selfVisible": 0,
                "shareDate": 1667444495000,
                "shareUser": "herozqtc",
                "superChapterId": 494,
                "superChapterName": "广场Tab",
                "tags": [],
                "title": "Kotlin | 关于 Lazy ，你应该了解的这些事",
                "type": 0,
                "userId": 141281,
                "visible": 0,
                "zan": 0
            },
            {
                "adminAdd": false,
                "apkLink": "",
                "audit": 1,
                "author": "",
                "canEdit": false,
                "chapterId": 494,
                "chapterName": "广场",
                "collect": false,
                "courseId": 13,
                "desc": "",
                "descMd": "",
                "envelopePic": "",
                "fresh": true,
                "host": "",
                "id": 24852,
                "isAdminAdd": false,
                "link": "https://juejin.cn/post/7161376731096432653",
                "niceDate": "12小时前",
                "niceShareDate": "12小时前",
                "origin": "",
                "prefix": "",
                "projectLink": "",
                "publishTime": 1667434940000,
                "realSuperChapterId": 493,
                "selfVisible": 0,
                "shareDate": 1667434940000,
                "shareUser": "goweii",
                "superChapterId": 494,
                "superChapterName": "广场Tab",
                "tags": [],
                "title": "InputManagerService: 创建与启动",
                "type": 0,
                "userId": 20382,
                "visible": 0,
                "zan": 0
            },
            {
                "adminAdd": false,
                "apkLink": "",
                "audit": 1,
                "author": "",
                "canEdit": false,
                "chapterId": 494,
                "chapterName": "广场",
                "collect": false,
                "courseId": 13,
                "desc": "",
                "descMd": "",
                "envelopePic": "",
                "fresh": true,
                "host": "",
                "id": 24851,
                "isAdminAdd": false,
                "link": "https://juejin.cn/post/7161230716838084616",
                "niceDate": "20小时前",
                "niceShareDate": "20小时前",
                "origin": "",
                "prefix": "",
                "projectLink": "",
                "publishTime": 1667403438000,
                "realSuperChapterId": 493,
                "selfVisible": 0,
                "shareDate": 1667403438000,
                "shareUser": "鸿洋",
                "superChapterId": 494,
                "superChapterName": "广场Tab",
                "tags": [],
                "title": "Android 13这些权限废弃，你的应用受影响了吗？",
                "type": 0,
                "userId": 2,
                "visible": 0,
                "zan": 0
            },
            {
                "adminAdd": false,
                "apkLink": "",
                "audit": 1,
                "author": "",
                "canEdit": false,
                "chapterId": 494,
                "chapterName": "广场",
                "collect": false,
                "courseId": 13,
                "desc": "",
                "descMd": "",
                "envelopePic": "",
                "fresh": false,
                "host": "",
                "id": 24844,
                "isAdminAdd": false,
                "link": "https://juejin.cn/post/7160939971606478861",
                "niceDate": "1天前",
                "niceShareDate": "1天前",
                "origin": "",
                "prefix": "",
                "projectLink": "",
                "publishTime": 1667350818000,
                "realSuperChapterId": 493,
                "selfVisible": 0,
                "shareDate": 1667350818000,
                "shareUser": "goweii",
                "superChapterId": 494,
                "superChapterName": "广场Tab",
                "tags": [],
                "title": "腾讯性能监控框架Matrix源码分析（十二）插桩 之MatrixTrace",
                "type": 0,
                "userId": 20382,
                "visible": 0,
                "zan": 0
            },
            {
                "adminAdd": false,
                "apkLink": "",
                "audit": 1,
                "author": "",
                "canEdit": false,
                "chapterId": 494,
                "chapterName": "广场",
                "collect": false,
                "courseId": 13,
                "desc": "",
                "descMd": "",
                "envelopePic": "",
                "fresh": false,
                "host": "",
                "id": 24830,
                "isAdminAdd": false,
                "link": "https://www.yuque.com/hihuanghongwei/zzlhpw/hnrpe4#KHwq0",
                "niceDate": "1天前",
                "niceShareDate": "2天前",
                "origin": "",
                "prefix": "",
                "projectLink": "",
                "publishTime": 1667314494000,
                "realSuperChapterId": 493,
                "selfVisible": 0,
                "shareDate": 1667285412000,
                "shareUser": "黄小玮z",
                "superChapterId": 494,
                "superChapterName": "广场Tab",
                "tags": [],
                "title": "Android LocalSocket的基本应用",
                "type": 0,
                "userId": 63235,
                "visible": 0,
                "zan": 0
            },
            {
                "adminAdd": false,
                "apkLink": "",
                "audit": 1,
                "author": "",
                "canEdit": false,
                "chapterId": 494,
                "chapterName": "广场",
                "collect": false,
                "courseId": 13,
                "desc": "",
                "descMd": "",
                "envelopePic": "",
                "fresh": false,
                "host": "",
                "id": 24826,
                "isAdminAdd": false,
                "link": "https://juejin.cn/post/7160592807730774024",
                "niceDate": "2天前",
                "niceShareDate": "2天前",
                "origin": "",
                "prefix": "",
                "projectLink": "",
                "publishTime": 1667262508000,
                "realSuperChapterId": 493,
                "selfVisible": 0,
                "shareDate": 1667262508000,
                "shareUser": "goweii",
                "superChapterId": 494,
                "superChapterName": "广场Tab",
                "tags": [],
                "title": "重学Android基础系列篇（三）：架构动态编程技术原理",
                "type": 0,
                "userId": 20382,
                "visible": 0,
                "zan": 0
            },
            {
                "adminAdd": false,
                "apkLink": "",
                "audit": 1,
                "author": "",
                "canEdit": false,
                "chapterId": 494,
                "chapterName": "广场",
                "collect": false,
                "courseId": 13,
                "desc": "",
                "descMd": "",
                "envelopePic": "",
                "fresh": false,
                "host": "",
                "id": 24815,
                "isAdminAdd": false,
                "link": "https://juejin.cn/post/7160363585028227086",
                "niceDate": "2022-10-31 08:32",
                "niceShareDate": "2022-10-31 08:32",
                "origin": "",
                "prefix": "",
                "projectLink": "",
                "publishTime": 1667176332000,
                "realSuperChapterId": 493,
                "selfVisible": 0,
                "shareDate": 1667176332000,
                "shareUser": "goweii",
                "superChapterId": 494,
                "superChapterName": "广场Tab",
                "tags": [],
                "title": "&quot;一篇就够&quot;系列：Java 六大设计原则和常用设计模式",
                "type": 0,
                "userId": 20382,
                "visible": 0,
                "zan": 0
            },
            {
                "adminAdd": false,
                "apkLink": "",
                "audit": 1,
                "author": "",
                "canEdit": false,
                "chapterId": 494,
                "chapterName": "广场",
                "collect": false,
                "courseId": 13,
                "desc": "",
                "descMd": "",
                "envelopePic": "",
                "fresh": false,
                "host": "",
                "id": 24793,
                "isAdminAdd": false,
                "link": "https://blog.csdn.net/u012810020/article/details/52108818",
                "niceDate": "2022-10-28 14:15",
                "niceShareDate": "2022-10-28 14:15",
                "origin": "",
                "prefix": "",
                "projectLink": "",
                "publishTime": 1666937707000,
                "realSuperChapterId": 493,
                "selfVisible": 0,
                "shareDate": 1666937707000,
                "shareUser": "herozqtc",
                "superChapterId": 494,
                "superChapterName": "广场Tab",
                "tags": [],
                "title": "Snackbar使用详解及其相关框架TSnackbar",
                "type": 0,
                "userId": 141281,
                "visible": 0,
                "zan": 0
            },
            {
                "adminAdd": false,
                "apkLink": "",
                "audit": 1,
                "author": "",
                "canEdit": false,
                "chapterId": 494,
                "chapterName": "广场",
                "collect": false,
                "courseId": 13,
                "desc": "",
                "descMd": "",
                "envelopePic": "",
                "fresh": false,
                "host": "",
                "id": 24782,
                "isAdminAdd": false,
                "link": "https://juejin.cn/post/7158765693536731172",
                "niceDate": "2022-10-27 08:35",
                "niceShareDate": "2022-10-27 08:35",
                "origin": "",
                "prefix": "",
                "projectLink": "",
                "publishTime": 1666830918000,
                "realSuperChapterId": 493,
                "selfVisible": 0,
                "shareDate": 1666830918000,
                "shareUser": "goweii",
                "superChapterId": 494,
                "superChapterName": "广场Tab",
                "tags": [],
                "title": "ADB 命令详解",
                "type": 0,
                "userId": 20382,
                "visible": 0,
                "zan": 0
            },
            {
                "adminAdd": false,
                "apkLink": "",
                "audit": 1,
                "author": "",
                "canEdit": false,
                "chapterId": 494,
                "chapterName": "广场",
                "collect": false,
                "courseId": 13,
                "desc": "",
                "descMd": "",
                "envelopePic": "",
                "fresh": false,
                "host": "",
                "id": 24756,
                "isAdminAdd": false,
                "link": "https://mp.weixin.qq.com/s/MAszOfaRMinhTbLFmxDacQ",
                "niceDate": "2022-10-24 21:51",
                "niceShareDate": "2022-10-24 21:51",
                "origin": "",
                "prefix": "",
                "projectLink": "",
                "publishTime": 1666619474000,
                "realSuperChapterId": 493,
                "selfVisible": 0,
                "shareDate": 1666619474000,
                "shareUser": "鸿洋",
                "superChapterId": 494,
                "superChapterName": "广场Tab",
                "tags": [],
                "title": "是什么让一段20行代码的性能提升了10倍",
                "type": 0,
                "userId": 2,
                "visible": 0,
                "zan": 0
            },
            {
                "adminAdd": false,
                "apkLink": "",
                "audit": 1,
                "author": "",
                "canEdit": false,
                "chapterId": 494,
                "chapterName": "广场",
                "collect": false,
                "courseId": 13,
                "desc": "",
                "descMd": "",
                "envelopePic": "",
                "fresh": false,
                "host": "",
                "id": 24724,
                "isAdminAdd": false,
                "link": "https://www.jianshu.com/p/e946cf746dc0",
                "niceDate": "2022-10-21 14:54",
                "niceShareDate": "2022-10-21 14:54",
                "origin": "",
                "prefix": "",
                "projectLink": "",
                "publishTime": 1666335274000,
                "realSuperChapterId": 493,
                "selfVisible": 0,
                "shareDate": 1666335274000,
                "shareUser": "鸿洋",
                "superChapterId": 494,
                "superChapterName": "广场Tab",
                "tags": [],
                "title": "Android获取手机Cpu温度",
                "type": 0,
                "userId": 2,
                "visible": 0,
                "zan": 0
            },
            {
                "adminAdd": false,
                "apkLink": "",
                "audit": 1,
                "author": "",
                "canEdit": false,
                "chapterId": 494,
                "chapterName": "广场",
                "collect": false,
                "courseId": 13,
                "desc": "",
                "descMd": "",
                "envelopePic": "",
                "fresh": false,
                "host": "",
                "id": 24720,
                "isAdminAdd": false,
                "link": "https://juejin.cn/post/7156408785886511111",
                "niceDate": "2022-10-21 08:35",
                "niceShareDate": "2022-10-21 08:35",
                "origin": "",
                "prefix": "",
                "projectLink": "",
                "publishTime": 1666312518000,
                "realSuperChapterId": 493,
                "selfVisible": 0,
                "shareDate": 1666312518000,
                "shareUser": "goweii",
                "superChapterId": 494,
                "superChapterName": "广场Tab",
                "tags": [],
                "title": "一看就懂！图解 Kotlin SharedFlow 缓存系统",
                "type": 0,
                "userId": 20382,
                "visible": 0,
                "zan": 0
            },
            {
                "adminAdd": false,
                "apkLink": "",
                "audit": 1,
                "author": "",
                "canEdit": false,
                "chapterId": 494,
                "chapterName": "广场",
                "collect": false,
                "courseId": 13,
                "desc": "",
                "descMd": "",
                "envelopePic": "",
                "fresh": false,
                "host": "",
                "id": 24717,
                "isAdminAdd": false,
                "link": "https://www.jianshu.com/p/967b562c6b27",
                "niceDate": "2022-10-20 21:07",
                "niceShareDate": "2022-10-20 21:07",
                "origin": "",
                "prefix": "",
                "projectLink": "",
                "publishTime": 1666271253000,
                "realSuperChapterId": 493,
                "selfVisible": 0,
                "shareDate": 1666271253000,
                "shareUser": "鸿洋",
                "superChapterId": 494,
                "superChapterName": "广场Tab",
                "tags": [],
                "title": "Android dumpsys meminfo 流程分析",
                "type": 0,
                "userId": 2,
                "visible": 0,
                "zan": 0
            },
            {
                "adminAdd": false,
                "apkLink": "",
                "audit": 1,
                "author": "",
                "canEdit": false,
                "chapterId": 494,
                "chapterName": "广场",
                "collect": false,
                "courseId": 13,
                "desc": "",
                "descMd": "",
                "envelopePic": "",
                "fresh": false,
                "host": "",
                "id": 24714,
                "isAdminAdd": false,
                "link": "https://blog.csdn.net/qq_19688207/article/details/115666841",
                "niceDate": "2022-10-20 14:57",
                "niceShareDate": "2022-10-20 14:57",
                "origin": "",
                "prefix": "",
                "projectLink": "",
                "publishTime": 1666249078000,
                "realSuperChapterId": 493,
                "selfVisible": 0,
                "shareDate": 1666249078000,
                "shareUser": "tangwei3",
                "superChapterId": 494,
                "superChapterName": "广场Tab",
                "tags": [],
                "title": "智能使用下拉刷新",
                "type": 0,
                "userId": 140630,
                "visible": 0,
                "zan": 0
            },
            {
                "adminAdd": false,
                "apkLink": "",
                "audit": 1,
                "author": "",
                "canEdit": false,
                "chapterId": 494,
                "chapterName": "广场",
                "collect": false,
                "courseId": 13,
                "desc": "",
                "descMd": "",
                "envelopePic": "",
                "fresh": false,
                "host": "",
                "id": 24713,
                "isAdminAdd": false,
                "link": "https://juejin.cn/post/7156157715230752782",
                "niceDate": "2022-10-20 14:53",
                "niceShareDate": "2022-10-20 14:53",
                "origin": "",
                "prefix": "",
                "projectLink": "",
                "publishTime": 1666248824000,
                "realSuperChapterId": 493,
                "selfVisible": 0,
                "shareDate": 1666248824000,
                "shareUser": "鸿洋",
                "superChapterId": 494,
                "superChapterName": "广场Tab",
                "tags": [],
                "title": "SurfaceView 与 TextureView 详解",
                "type": 0,
                "userId": 2,
                "visible": 0,
                "zan": 0
            },
            {
                "adminAdd": false,
                "apkLink": "",
                "audit": 1,
                "author": "",
                "canEdit": false,
                "chapterId": 494,
                "chapterName": "广场",
                "collect": false,
                "courseId": 13,
                "desc": "",
                "descMd": "",
                "envelopePic": "",
                "fresh": false,
                "host": "",
                "id": 24712,
                "isAdminAdd": false,
                "link": "https://juejin.cn/post/7156412700824698888",
                "niceDate": "2022-10-20 14:53",
                "niceShareDate": "2022-10-20 14:53",
                "origin": "",
                "prefix": "",
                "projectLink": "",
                "publishTime": 1666248810000,
                "realSuperChapterId": 493,
                "selfVisible": 0,
                "shareDate": 1666248810000,
                "shareUser": "鸿洋",
                "superChapterId": 494,
                "superChapterName": "广场Tab",
                "tags": [],
                "title": "Gradle里那些神奇操作的原理",
                "type": 0,
                "userId": 2,
                "visible": 0,
                "zan": 0
            },
            {
                "adminAdd": false,
                "apkLink": "",
                "audit": 1,
                "author": "",
                "canEdit": false,
                "chapterId": 494,
                "chapterName": "广场",
                "collect": false,
                "courseId": 13,
                "desc": "",
                "descMd": "",
                "envelopePic": "",
                "fresh": false,
                "host": "",
                "id": 24709,
                "isAdminAdd": false,
                "link": "https://www.jianshu.com/p/f272e5bc4023",
                "niceDate": "2022-10-20 14:27",
                "niceShareDate": "2022-10-20 14:27",
                "origin": "",
                "prefix": "",
                "projectLink": "",
                "publishTime": 1666247265000,
                "realSuperChapterId": 493,
                "selfVisible": 0,
                "shareDate": 1666247265000,
                "shareUser": "鸿洋",
                "superChapterId": 494,
                "superChapterName": "广场Tab",
                "tags": [],
                "title": "从应用工程师的角度再谈车载 Android 系统",
                "type": 0,
                "userId": 2,
                "visible": 0,
                "zan": 0
            },
            {
                "adminAdd": false,
                "apkLink": "",
                "audit": 1,
                "author": "",
                "canEdit": false,
                "chapterId": 494,
                "chapterName": "广场",
                "collect": false,
                "courseId": 13,
                "desc": "",
                "descMd": "",
                "envelopePic": "",
                "fresh": false,
                "host": "",
                "id": 24699,
                "isAdminAdd": false,
                "link": "https://juejin.cn/post/7156160803719249933",
                "niceDate": "2022-10-20 09:55",
                "niceShareDate": "2022-10-20 09:55",
                "origin": "",
                "prefix": "",
                "projectLink": "",
                "publishTime": 1666230938000,
                "realSuperChapterId": 493,
                "selfVisible": 0,
                "shareDate": 1666230938000,
                "shareUser": "王猛",
                "superChapterId": 494,
                "superChapterName": "广场Tab",
                "tags": [],
                "title": "Flutter语法检测及原理剖析",
                "type": 0,
                "userId": 15976,
                "visible": 0,
                "zan": 0
            },
            {
                "adminAdd": false,
                "apkLink": "",
                "audit": 1,
                "author": "",
                "canEdit": false,
                "chapterId": 494,
                "chapterName": "广场",
                "collect": false,
                "courseId": 13,
                "desc": "",
                "descMd": "",
                "envelopePic": "",
                "fresh": false,
                "host": "",
                "id": 24697,
                "isAdminAdd": false,
                "link": "https://www.jianshu.com/p/5d5bff9269f1",
                "niceDate": "2022-10-20 09:08",
                "niceShareDate": "2022-10-20 09:08",
                "origin": "",
                "prefix": "",
                "projectLink": "",
                "publishTime": 1666228139000,
                "realSuperChapterId": 493,
                "selfVisible": 0,
                "shareDate": 1666228139000,
                "shareUser": "herozqtc",
                "superChapterId": 494,
                "superChapterName": "广场Tab",
                "tags": [],
                "title": "kotlin&mdash;lazy及其原理",
                "type": 0,
                "userId": 141281,
                "visible": 0,
                "zan": 0
            },
            {
                "adminAdd": false,
                "apkLink": "",
                "audit": 1,
                "author": "",
                "canEdit": false,
                "chapterId": 494,
                "chapterName": "广场",
                "collect": false,
                "courseId": 13,
                "desc": "",
                "descMd": "",
                "envelopePic": "",
                "fresh": false,
                "host": "",
                "id": 24695,
                "isAdminAdd": false,
                "link": "https://juejin.cn/post/7155015446511484964",
                "niceDate": "2022-10-19 17:32",
                "niceShareDate": "2022-10-19 17:32",
                "origin": "",
                "prefix": "",
                "projectLink": "",
                "publishTime": 1666171964000,
                "realSuperChapterId": 493,
                "selfVisible": 0,
                "shareDate": 1666171964000,
                "shareUser": "鸿洋",
                "superChapterId": 494,
                "superChapterName": "广场Tab",
                "tags": [],
                "title": "Android进阶宝典 -- 类加载机制是如何处理字节码文件？",
                "type": 0,
                "userId": 2,
                "visible": 0,
                "zan": 0
            }
        ],
        "offset": 0,
        "over": false,
        "pageCount": 217,
        "size": 20,
        "total": 4335
    },
    "errorCode": 0,
    "errorMsg": ""
}